python-schedutils-0.4-6.el7.x86_64
python-lxml-3.2.1-4.el7.x86_64
python-nss-0.16.0-3.el7.x86_64
python-pycurl-7.19.0-19.el7.x86_64
python-augeas-0.5.0-2.el7.noarch
python-kitchen-1.1.1-5.el7.noarch
python-firewall-0.4.4.4-6.el7.noarch
python-linux-procfs-0.4.9-3.el7.noarch
python2-caribou-0.4.21-1.el7.noarch
python-libipa_hbac-1.15.2-50.el7_4.11.x86_64
python-configparser-3.5.0b2-1.el7.noarch
python2-pip-8.1.2-5.el7.noarch
python-backports-1.0-8.el7.x86_64
python-pycparser-2.14-1.el7.noarch
python-2.7.5-58.el7.x86_64
python-jinja2-2.7.2-2.el7.noarch
python36u-devel-3.6.4-1.ius.centos7.x86_64
python-dns-1.12.0-4.20150617git465785f.el7.noarch
python-kmod-0.9-4.el7.x86_64
python-smbc-1.0.13-7.el7.x86_64
python-coverage-3.6-0.5.b3.el7.x86_64
python-jwcrypto-0.2.1-1.el7.noarch
python2-ipaclient-4.5.0-22.el7.centos.noarch
python-pygments-1.4-10.el7.noarch
python-brlapi-0.6.0-15.el7.x86_64
python2-pyasn1-modules-0.1.9-7.el7.noarch
python-di-0.3-2.el7.noarch
python-setuptools-0.9.8-7.el7.noarch
python-deltarpm-3.6-3.el7.x86_64
python-devel-2.7.5-58.el7.x86_64
python-cffi-1.6.0-5.el7.x86_64
python-configobj-4.7.2-7.el7.noarch
python-sssdconfig-1.15.2-50.el7_4.11.noarch
python-urwid-1.1.1-3.el7.x86_64
python-requests-2.6.0-1.el7_1.noarch
python-iniparse-0.4-9.el7.noarch
python-ntplib-0.3.2-1.el7.noarch
python-perf-3.10.0-693.21.1.el7.x86_64
python-markupsafe-0.11-10.el7.x86_64
python-rtslib-2.1.fb63-2.el7.noarch
python-pyudev-0.15-9.el7.noarch
python36u-3.6.4-1.ius.centos7.x86_64
python-ethtool-0.8-5.el7.x86_64
python-chardet-2.2.1-1.el7_1.noarch
python-yubico-1.2.3-1.el7.noarch
python-gobject-3.22.0-1.el7_4.1.x86_64
python-cups-1.9.63-6.el7.x86_64
python-ipaddress-1.0.16-2.el7.noarch
python-dateutil-1.5-7.el7.noarch
python-urllib3-1.10.2-3.el7.noarch
python-netifaces-0.10.4-3.el7.x86_64
python-docutils-0.11-0.2.20130715svn7687.el7.noarch
python2-ipalib-4.5.0-22.el7.centos.noarch
python-enum34-1.0.4-1.el7.noarch
python36u-libs-3.6.4-1.ius.centos7.x86_64
python-dmidecode-3.12.2-1.1.el7.x86_64
python-slip-0.4.0-2.el7.noarch
python-pyblock-0.53-6.el7.x86_64
python-configshell-1.1.fb23-3.el7.noarch
python-javapackages-3.4.1-11.el7.noarch
python-ply-3.4-11.el7.noarch
python-sss-murmur-1.15.2-50.el7_4.11.x86_64
python36u-setuptools-39.0.1-1.ius.centos7.noarch
python-urlgrabber-3.10-8.el7.noarch
python-gssapi-1.2.0-3.el7.x86_64
python36u-pip-9.0.1-1.ius.centos7.noarch
python-IPy-0.75-6.el7.noarch
python-inotify-0.9.4-4.el7.noarch
python-meh-gui-0.25.2-1.el7.noarch
python-babel-0.9.6-8.el7.noarch
python-pwquality-1.2.3-4.el7.x86_64
python2-pyxdg-0.25-6.el7.noarch
python-backports-ssl_match_hostname-3.4.0.2-4.el7.noarch
python2-cryptography-1.7.2-1.el7_4.1.x86_64
python-ldap-2.4.15-2.el7.x86_64
python-libs-2.7.5-58.el7.x86_64
python-pillow-2.0.0-19.gitd1c6db8.el7.x86_64
python-meh-0.25.2-1.el7.noarch
python-slip-dbus-0.4.0-2.el7.noarch
python-qrcode-core-5.0.1-1.el7.noarch
python-blivet-0.61.15.65-1.el7.noarch
python-decorator-3.4.0-3.el7.noarch
python-gobject-base-3.22.0-1.el7_4.1.x86_64
python-idna-2.4-1.el7.noarch
python-netaddr-0.7.5-7.el7.noarch
python-six-1.9.0-2.el7.noarch
python2-pyasn1-0.1.9-7.el7.noarch
